{
  "backend_server": "http://gmb-9096.grew.fr/",
  "default": "Zaar",
  "groups": [
    {
      "id": "Breton",
      "name": "Breton",
      "snippets": "autogramm",
      "mode": "syntax",
      "style": "single",
      "default": "Breton",
      "corpora": [
        {
          "id": "Breton"
        }
      ]
    },
    {
      "id": "Darija",
      "name": "Darija",
      "snippets": "autogramm",
      "mode": "syntax",
      "style": "single",
      "default": "Darija",
      "corpora": [
        {
          "id": "Darija",
          "audio": true
        }
      ]
    },
    {
      "id": "Sungwadia",
      "name": "Sungwadia",
      "snippets": "autogramm",
      "mode": "syntax",
      "style": "single",
      "default": "Sungwadia",
      "corpora": [
        {
          "id": "Sungwadia"
        }
      ]
    },
    {
      "id": "Yali",
      "name": "Yali",
      "snippets": "autogramm",
      "mode": "syntax",
      "style": "single",
      "default": "Yali",
      "corpora": [
        {
          "id": "Yali",
          "audio": true
        }
      ]
    },
    {
      "id": "Zaar",
      "name": "Zaar",
      "snippets": "autogramm",
      "mode": "syntax",
      "style": "single",
      "default": "Zaar",
      "corpora": [
        {
          "id": "Zaar",
          "audio": true
        }
      ]
    }
  ]
}