{
  "top_project": {
    "website": "https://gitlab.com/parseme/corpora/-/wikis/home",
    "logo": "https://parsemefr.lis-lab.fr/parseme-st-guidelines/img/parseme-logo.png"
  },
  "backend_server": "https://gmb-9091.grew.fr/",
  "default": "PARSEME-FR@master",
  "groups": [
    {
      "id": "master",
      "name": "Gitlab/master",
      "mode": "syntax",
      "style": "left_pane",
      "default": "PARSEME-FR@master",
      "snippets": "parseme",
      "corpora": [{
          "id": "PARSEME-AR@master",
          "gitlab": "https://gitlab.com/parseme/parseme_corpus_ar",
          "rtl": true,
          "consistencyCheck": "https://grew.fr/download/PARSEME/ar.html"
        },
        {
          "id": "PARSEME-BG@master",
          "gitlab": "https://gitlab.com/parseme/parseme_corpus_bg",
          "consistencyCheck": "https://grew.fr/download/PARSEME/bg.html"
        },
        {
          "id": "PARSEME-CS@master",
          "gitlab": "https://gitlab.com/parseme/parseme_corpus_cs",
          "consistencyCheck": "https://grew.fr/download/PARSEME/cs.html"
        },
        {
          "id": "PARSEME-DE@master",
          "gitlab": "https://gitlab.com/parseme/parseme_corpus_de",
          "consistencyCheck": "https://grew.fr/download/PARSEME/de.html"
        },
        {
          "id": "PARSEME-EL@master",
          "gitlab": "https://gitlab.com/parseme/parseme_corpus_el",
          "consistencyCheck": "https://grew.fr/download/PARSEME/el.html"
        },
        {
          "id": "PARSEME-EN@master",
          "gitlab": "https://gitlab.com/parseme/parseme_corpus_en",
          "consistencyCheck": "https://grew.fr/download/PARSEME/en.html"
        },
        {
          "id": "PARSEME-ES@master",
          "gitlab": "https://gitlab.com/parseme/parseme_corpus_es",
          "consistencyCheck": "https://grew.fr/download/PARSEME/es.html"
        },
        {
          "id": "PARSEME-EU@master",
          "gitlab": "https://gitlab.com/parseme/parseme_corpus_eu",
          "consistencyCheck": "https://grew.fr/download/PARSEME/eu.html"
        },
        {
          "id": "PARSEME-FA@master",
          "gitlab": "https://gitlab.com/parseme/parseme_corpus_fa",
          "rtl": true,
          "consistencyCheck": "https://grew.fr/download/PARSEME/fa.html"
        },
        {
          "id": "PARSEME-FR@master",
          "gitlab": "https://gitlab.com/parseme/parseme_corpus_fr",
          "consistencyCheck": "https://grew.fr/download/PARSEME/fr.html"
        },
        {
          "id": "PARSEME-GA@master",
          "gitlab": "https://gitlab.com/parseme/parseme_corpus_ga",
          "consistencyCheck": "https://grew.fr/download/PARSEME/ga.html"
        },
        {
          "id": "PARSEME-HE@master",
          "gitlab": "https://gitlab.com/parseme/parseme_corpus_he",
          "rtl": true,
          "consistencyCheck": "https://grew.fr/download/PARSEME/he.html"
        },
        {
          "id": "PARSEME-HI@master",
          "gitlab": "https://gitlab.com/parseme/parseme_corpus_hi",
          "consistencyCheck": "https://grew.fr/download/PARSEME/hi.html"
        },
        {
          "id": "PARSEME-HR@master",
          "gitlab": "https://gitlab.com/parseme/parseme_corpus_hr",
          "consistencyCheck": "https://grew.fr/download/PARSEME/hr.html"
        },
        {
          "id": "PARSEME-HU@master",
          "gitlab": "https://gitlab.com/parseme/parseme_corpus_hu",
          "consistencyCheck": "https://grew.fr/download/PARSEME/hu.html"
        },
        {
          "id": "PARSEME-IT@master",
          "gitlab": "https://gitlab.com/parseme/parseme_corpus_it",
          "consistencyCheck": "https://grew.fr/download/PARSEME/it.html"
        },
        {
          "id": "PARSEME-LT@master",
          "gitlab": "https://gitlab.com/parseme/parseme_corpus_lt",
          "consistencyCheck": "https://grew.fr/download/PARSEME/lt.html"
        },
        {
          "id": "PARSEME-MT@master",
          "gitlab": "https://gitlab.com/parseme/parseme_corpus_mt",
          "consistencyCheck": "https://grew.fr/download/PARSEME/mt.html"
        },
        {
          "id": "PARSEME-PL@master",
          "gitlab": "https://gitlab.com/parseme/parseme_corpus_pl",
          "consistencyCheck": "https://grew.fr/download/PARSEME/pl.html"
        },
        {
          "id": "PARSEME-PT@master",
          "gitlab": "https://gitlab.com/parseme/parseme_corpus_pt",
          "consistencyCheck": "https://grew.fr/download/PARSEME/pt.html"
        },
        {
          "id": "PARSEME-RO@master",
          "gitlab": "https://gitlab.com/parseme/parseme_corpus_ro",
          "consistencyCheck": "https://grew.fr/download/PARSEME/rohtml"
        },
        {
          "id": "PARSEME-SL@master",
          "gitlab": "https://gitlab.com/parseme/parseme_corpus_sl",
          "consistencyCheck": "https://grew.fr/download/PARSEME/sl.html"
        },
        {
          "id": "PARSEME-SR@master",
          "gitlab": "https://gitlab.com/parseme/parseme_corpus_sr",
          "consistencyCheck": "https://grew.fr/download/PARSEME/sr.html"
        },
        {
          "id": "PARSEME-SV@master",
          "gitlab": "https://gitlab.com/parseme/parseme_corpus_sv",
          "consistencyCheck": "https://grew.fr/download/PARSEME/sv.html"
        },
        {
          "id": "PARSEME-TR@master",
          "gitlab": "https://gitlab.com/parseme/parseme_corpus_tr",
          "consistencyCheck": "https://grew.fr/download/PARSEME/tr.html"
        },
        {
          "id": "PARSEME-ZH@master",
          "gitlab": "https://gitlab.com/parseme/parseme_corpus_zh",
          "consistencyCheck": "https://grew.fr/download/PARSEME/zh.html"
        }
      ]
    },


    {
      "id": "v13",
      "name": "Version 1.3",
      "mode": "syntax",
      "style": "left_pane",
      "default": "PARSEME-EN@1.3",
      "snippets": "parseme",
      "corpora": [{
          "id": "PARSEME-AR@1.3",
          "gitlab": "https://gitlab.com/parseme/parseme_corpus_ar",
          "rtl": true
        },
        {
          "id": "PARSEME-BG@1.3",
          "gitlab": "https://gitlab.com/parseme/parseme_corpus_bg"
        },
        {
          "id": "PARSEME-CS@1.3",
          "gitlab": "https://gitlab.com/parseme/parseme_corpus_cs"
        },
        {
          "id": "PARSEME-DE@1.3",
          "gitlab": "https://gitlab.com/parseme/parseme_corpus_de"
        },
        {
          "id": "PARSEME-EL@1.3",
          "gitlab": "https://gitlab.com/parseme/parseme_corpus_el"
        },
        {
          "id": "PARSEME-EN@1.3",
          "gitlab": "https://gitlab.com/parseme/parseme_corpus_en"
        },
        {
          "id": "PARSEME-ES@1.3",
          "gitlab": "https://gitlab.com/parseme/parseme_corpus_es"
        },
        {
          "id": "PARSEME-EU@1.3",
          "gitlab": "https://gitlab.com/parseme/parseme_corpus_eu"
        },
        {
          "id": "PARSEME-FA@1.3",
          "gitlab": "https://gitlab.com/parseme/parseme_corpus_fa",
          "rtl": true
        },
        {
          "id": "PARSEME-FR@1.3",
          "gitlab": "https://gitlab.com/parseme/parseme_corpus_fr"
        },
        {
          "id": "PARSEME-GA@1.3",
          "gitlab": "https://gitlab.com/parseme/parseme_corpus_ga"
        },
        {
          "id": "PARSEME-HE@1.3",
          "gitlab": "https://gitlab.com/parseme/parseme_corpus_he",
          "rtl": true
        },
        {
          "id": "PARSEME-HI@1.3",
          "gitlab": "https://gitlab.com/parseme/parseme_corpus_hi"
        },
        {
          "id": "PARSEME-HR@1.3",
          "gitlab": "https://gitlab.com/parseme/parseme_corpus_hr"
        },
        {
          "id": "PARSEME-HU@1.3",
          "gitlab": "https://gitlab.com/parseme/parseme_corpus_hu"
        },
        {
          "id": "PARSEME-IT@1.3",
          "gitlab": "https://gitlab.com/parseme/parseme_corpus_it"
        },
        {
          "id": "PARSEME-LT@1.3",
          "gitlab": "https://gitlab.com/parseme/parseme_corpus_lt"
        },
        {
          "id": "PARSEME-MT@1.3",
          "gitlab": "https://gitlab.com/parseme/parseme_corpus_mt"
        },
        {
          "id": "PARSEME-PL@1.3",
          "gitlab": "https://gitlab.com/parseme/parseme_corpus_pl"
        },
        {
          "id": "PARSEME-PT@1.3",
          "gitlab": "https://gitlab.com/parseme/parseme_corpus_pt"
        },
        {
          "id": "PARSEME-RO@1.3",
          "gitlab": "https://gitlab.com/parseme/parseme_corpus_ro"
        },
        {
          "id": "PARSEME-SL@1.3",
          "gitlab": "https://gitlab.com/parseme/parseme_corpus_sl"
        },
        {
          "id": "PARSEME-SR@1.3",
          "gitlab": "https://gitlab.com/parseme/parseme_corpus_sr"
        },
        {
          "id": "PARSEME-SV@1.3",
          "gitlab": "https://gitlab.com/parseme/parseme_corpus_sv"
        },
        {
          "id": "PARSEME-TR@1.3",
          "gitlab": "https://gitlab.com/parseme/parseme_corpus_tr"
        },
        {
          "id": "PARSEME-ZH@1.3",
          "gitlab": "https://gitlab.com/parseme/parseme_corpus_zh"
        }
      ]
    },




    {
      "id": "v12",
      "name": "Version 1.2",
      "mode": "syntax",
      "style": "left_pane",
      "default": "PARSEME-FR@1.2",
      "snippets": "parseme",
      "corpora": [{
          "id": "PARSEME-DE@1.2"
        },
        {
          "id": "PARSEME-EL@1.2"
        },
        {
          "id": "PARSEME-EU@1.2"
        },
        {
          "id": "PARSEME-FR@1.2"
        },
        {
          "id": "PARSEME-GA@1.2"
        },
        {
          "id": "PARSEME-HE@1.2",
          "rtl": true
        },
        {
          "id": "PARSEME-HI@1.2"
        },
        {
          "id": "PARSEME-IT@1.2"
        },
        {
          "id": "PARSEME-PL@1.2"
        },
        {
          "id": "PARSEME-PT@1.2"
        },
        {
          "id": "PARSEME-RO@1.2"
        },
        {
          "id": "PARSEME-SV@1.2"
        },
        {
          "id": "PARSEME-TR@1.2"
        },
        {
          "id": "PARSEME-ZH@1.2"
        }
      ]
    },
    {
      "id": "tables",
      "name": "Global tables",
      "style": "links",
      "icon": "fa-table",
      "links": [
        { 
          "id": "Validation table on master",
          "url": "https://parseme.grew.fr/tables/?data=parseme/valid@master" 
        },
        { 
          "id": "Validation table on 1.3",
          "url": "https://parseme.grew.fr/tables/?data=parseme/valid@1.3" 
        },
        { 
          "id": "Validation table on 1.2",
          "url": "https://parseme.grew.fr/tables/?data=parseme/valid@1.2" 
        },
        "divider",
        { 
          "id": "VMWE by tags on master",
          "url": "https://parseme.grew.fr/tables/?data=parseme/labels@master" 
        },
        { 
          "id": "VMWE by tags on 1.3",
          "url": "https://parseme.grew.fr/tables/?data=parseme/labels@1.3" 
        },
        { 
          "id": "VMWE by tags on 1.2",
          "url": "https://parseme.grew.fr/tables/?data=parseme/labels@1.2" 
        }
      ]
    }
  ]
}