{
  "corpora": [

    {
      "id": "Breton",
      "config": "sud",
      "dynamic": true,
      "directory": "/Users/guillaum/resources/autogramm/Breton"
    },

    {
      "id": "Darija",
      "config": "sud",
      "audio": true,
      "directory": "/Users/guillaum/resources/autogramm/Darija"
    },

    {
      "id": "Sungwadia",
      "config": "sud",
      "dynamic": true,
      "directory": "/Users/guillaum/resources/autogramm/Sungwadia"
    },

    {
      "id": "Yali",
      "config": "sud",
      "audio": true,
      "dynamic": true,
      "directory": "/Users/guillaum/resources/autogramm/Yali"
    },

    {
      "id": "Zaar",
      "config": "sud",
      "audio": true,
      "dynamic": true,
      "directory": "/Users/guillaum/resources/autogramm/Zaar"
    }

  ]
}
