{
  "corpora": [
    {
      "id": "PARSEME-AR@1.3",
      "config": "ud",
      "rtl": true,
      "directory": "/Users/guillaum/resources/PARSEME/1.3/AR"
    },
    {
      "id": "PARSEME-BG@1.3",
      "config": "ud",
      "directory": "/Users/guillaum/resources/PARSEME/1.3/BG"
    },
    {
      "id": "PARSEME-CS@1.3",
      "config": "ud",
      "directory": "/Users/guillaum/resources/PARSEME/1.3/CS"
    },
    {
      "id": "PARSEME-DE@1.3",
      "config": "ud",
      "directory": "/Users/guillaum/resources/PARSEME/1.3/DE"
    },
    {
      "id": "PARSEME-EL@1.3",
      "config": "ud",
      "directory": "/Users/guillaum/resources/PARSEME/1.3/EL"
    },
    {
      "id": "PARSEME-EN@1.3",
      "config": "ud",
      "directory": "/Users/guillaum/resources/PARSEME/1.3/EN"
    },
    {
      "id": "PARSEME-ES@1.3",
      "config": "ud",
      "directory": "/Users/guillaum/resources/PARSEME/1.3/ES"
    },
    {
      "id": "PARSEME-EU@1.3",
      "config": "ud",
      "directory": "/Users/guillaum/resources/PARSEME/1.3/EU"
    },
    {
      "id": "PARSEME-FA@1.3",
      "config": "ud",
      "rtl": true,
      "directory": "/Users/guillaum/resources/PARSEME/1.3/FA"
    },
    {
      "id": "PARSEME-FR@1.3",
      "config": "ud",
      "directory": "/Users/guillaum/resources/PARSEME/1.3/FR"
    },
    {
      "id": "PARSEME-GA@1.3",
      "config": "ud",
      "directory": "/Users/guillaum/resources/PARSEME/1.3/GA"
    },
    {
      "id": "PARSEME-HE@1.3",
      "config": "ud",
      "rtl": true,
      "directory": "/Users/guillaum/resources/PARSEME/1.3/HE"
    },
    {
      "id": "PARSEME-HI@1.3",
      "config": "ud",
      "directory": "/Users/guillaum/resources/PARSEME/1.3/HI"
    },
    {
      "id": "PARSEME-HR@1.3",
      "config": "ud",
      "directory": "/Users/guillaum/resources/PARSEME/1.3/HR"
    },
    {
      "id": "PARSEME-HU@1.3",
      "config": "ud",
      "directory": "/Users/guillaum/resources/PARSEME/1.3/HU"
    },
    {
      "id": "PARSEME-IT@1.3",
      "config": "ud",
      "directory": "/Users/guillaum/resources/PARSEME/1.3/IT"
    },
    {
      "id": "PARSEME-LT@1.3",
      "config": "ud",
      "directory": "/Users/guillaum/resources/PARSEME/1.3/LT"
    },
    {
      "id": "PARSEME-MT@1.3",
      "config": "ud",
      "directory": "/Users/guillaum/resources/PARSEME/1.3/MT"
    },
    {
      "id": "PARSEME-PL@1.3",
      "config": "ud",
      "directory": "/Users/guillaum/resources/PARSEME/1.3/PL"
    },
    {
      "id": "PARSEME-PT@1.3",
      "config": "ud",
      "directory": "/Users/guillaum/resources/PARSEME/1.3/PT"
    },
    {
      "id": "PARSEME-RO@1.3",
      "config": "ud",
      "directory": "/Users/guillaum/resources/PARSEME/1.3/RO"
    },
    {
      "id": "PARSEME-SL@1.3",
      "config": "ud",
      "directory": "/Users/guillaum/resources/PARSEME/1.3/SL"
    },
    {
      "id": "PARSEME-SR@1.3",
      "config": "ud",
      "directory": "/Users/guillaum/resources/PARSEME/1.3/SR"
    },
    {
      "id": "PARSEME-SV@1.3",
      "config": "ud",
      "directory": "/Users/guillaum/resources/PARSEME/1.3/SV"
    },
    {
      "id": "PARSEME-TR@1.3",
      "config": "ud",
      "directory": "/Users/guillaum/resources/PARSEME/1.3/TR"
    },
    {
      "id": "PARSEME-ZH@1.3",
      "config": "ud",
      "directory": "/Users/guillaum/resources/PARSEME/1.3/ZH"
    }
  ]
}