{
  "corpora": [
    {
      "id": "mSUD_Beja-NSC@latest",
      "lang": "bej",
      "config": "sud",
      "audio": true,
      "dynamic": true,
      "directory": "/Users/guillaum/resources/sud-treebanks-latest/mSUD_Beja-NSC"
    },
    {
      "id": "mSUD_Chinese-Beginner@latest",
      "lang": "zh",
      "config": "sud",
      "dynamic": true,
      "directory": "/Users/guillaum/resources/sud-treebanks-latest/mSUD_Chinese-Beginner"
    },
    {
      "id": "mSUD_Chinese-PatentChar@latest",
      "lang": "zh",
      "config": "sud",
      "dynamic": true,
      "directory": "/Users/guillaum/resources/sud-treebanks-latest/mSUD_Chinese-PatentChar"
    },
    {
      "id": "SUD_Darija-Autogramm@latest",
      "config": "sud",
      "lang": "ary",
      "audio": true,
      "dynamic": true,
      "directory": "/Users/guillaum/resources/sud-treebanks-latest/SUD_Darija-Autogramm"
    },
    {
      "id": "SUD_Egyptian_Arabic-Autogramm@latest",
      "config": "sud",
      "lang": "arz",
      "audio": true,
      "dynamic": true,
      "directory": "/Users/guillaum/resources/sud-treebanks-latest/SUD_Egyptian_Arabic-Autogramm"
    },
    {
      "id": "SUD_French-GSD@latest",
      "lang": "fr",
      "config": "sud",
      "dynamic": true,
      "directory": "/Users/guillaum/resources/sud-treebanks-latest/SUD_French-GSD"
    },
    {
      "id": "SUD_French-Sequoia@latest",
      "lang": "fr",
      "config": "sud",
      "dynamic": true,
      "directory": "/Users/guillaum/resources/sud-treebanks-latest/SUD_French-Sequoia"
    },
    {
      "id": "SUD_French-Rhapsodie@latest",
      "lang": "fr",
      "config": "sud",
      "dynamic": true,
      "directory": "/Users/guillaum/resources/sud-treebanks-latest/SUD_French-Rhapsodie"
    },
    {
      "id": "SUD_French-ParisStories@latest",
      "lang": "fr",
      "config": "sud",
      "audio": true,
      "dynamic": true,
      "directory": "/Users/guillaum/resources/sud-treebanks-latest/SUD_French-ParisStories"
    },
    {
      "id": "SUD_Hausa-NorthernAutogramm@latest",
      "lang": "hau",
      "config": "sud",
      "audio": true,
      "dynamic": true,
      "directory": "/Users/guillaum/resources/sud-treebanks-latest/SUD_Hausa-NorthernAutogramm"
    },
    {
      "id": "SUD_Hausa-SouthernAutogramm@latest",
      "lang": "hau",
      "config": "sud",
      "audio": true,
      "dynamic": true,
      "directory": "/Users/guillaum/resources/sud-treebanks-latest/SUD_Hausa-SouthernAutogramm"
    },
    {
      "id": "SUD_PS_2023@latest",
      "lang": "fr",
      "config": "sud",
      "audio": true,
      "dynamic": true,
      "directory": "/Users/guillaum/resources/sud-treebanks-latest/SUD_PS_2023"
    },
    {
      "id": "SUD_Gbaya-Autogramm@latest",
      "config": "sud",
      "lang": "gba",
      "dynamic": true,
      "directory": "/Users/guillaum/resources/sud-treebanks-latest/SUD_Gbaya-Autogramm"
    },
    {
      "id": "SUD_Haitian_Creole-Autogramm@latest",
      "lang": "ht",
      "config": "sud",
      "dynamic": true,
      "directory": "/Users/guillaum/resources/sud-treebanks-latest/SUD_Haitian_Creole-Autogramm"
    },
    {
      "id": "SUD_Naija-NSC@latest",
      "lang": "pcm",
      "config": "sud",
      "audio": true,
      "dynamic": true,
      "directory": "/Users/guillaum/resources/sud-treebanks-latest/SUD_Naija-NSC"
    },
    {
      "id": "SUD_Naija-NSC_Auto@latest",
      "lang": "pcm",
      "config": "sud",
      "dynamic": true,
      "directory": "/Users/guillaum/resources/sud-treebanks-latest/SUD_Naija-NSC/non_gold"
    },
    {
      "id": "SUD_Tunisian_Arabic-NAxLAT@latest",
      "lang": "aeb",
      "config": "sud",
      "dynamic": true,
      "directory": "/Users/guillaum/resources/sud-treebanks-latest/SUD_Tunisian_Arabic-NAxLAT"
    },
    {
      "id": "SUD_Zaar-Autogramm@latest",
      "lang": "say",
      "config": "sud",
      "audio": true,
      "dynamic": true,
      "directory": "/Users/guillaum/resources/sud-treebanks-latest/SUD_Zaar-Autogramm"
    }
  ]
}