{
  "corpora": [
    {
      "id": "UD_Abaza-ATB@2.13",
      "config": "ud",
      "directory": "/Users/guillaum/resources/ud-treebanks-v2.13/UD_Abaza-ATB"
    },
    {
      "id": "UD_Afrikaans-AfriBooms@2.13",
      "config": "ud",
      "directory": "/Users/guillaum/resources/ud-treebanks-v2.13/UD_Afrikaans-AfriBooms"
    },
    {
      "id": "UD_Akkadian-PISANDUB@2.13",
      "config": "ud",
      "directory": "/Users/guillaum/resources/ud-treebanks-v2.13/UD_Akkadian-PISANDUB"
    },
    {
      "id": "UD_Akkadian-RIAO@2.13",
      "config": "ud",
      "directory": "/Users/guillaum/resources/ud-treebanks-v2.13/UD_Akkadian-RIAO"
    },
    {
      "id": "UD_Akuntsu-TuDeT@2.13",
      "config": "ud",
      "directory": "/Users/guillaum/resources/ud-treebanks-v2.13/UD_Akuntsu-TuDeT"
    },
    {
      "id": "UD_Albanian-TSA@2.13",
      "config": "ud",
      "directory": "/Users/guillaum/resources/ud-treebanks-v2.13/UD_Albanian-TSA"
    },
    {
      "id": "UD_Amharic-ATT@2.13",
      "config": "ud",
      "directory": "/Users/guillaum/resources/ud-treebanks-v2.13/UD_Amharic-ATT"
    },
    {
      "id": "UD_Ancient_Greek-PROIEL@2.13",
      "config": "ud",
      "directory": "/Users/guillaum/resources/ud-treebanks-v2.13/UD_Ancient_Greek-PROIEL"
    },
    {
      "id": "UD_Ancient_Greek-PTNK@2.13",
      "config": "ud",
      "directory": "/Users/guillaum/resources/ud-treebanks-v2.13/UD_Ancient_Greek-PTNK"
    },
    {
      "id": "UD_Ancient_Greek-Perseus@2.13",
      "config": "ud",
      "directory": "/Users/guillaum/resources/ud-treebanks-v2.13/UD_Ancient_Greek-Perseus"
    },
    {
      "id": "UD_Ancient_Hebrew-PTNK@2.13",
      "config": "ud",
      "directory": "/Users/guillaum/resources/ud-treebanks-v2.13/UD_Ancient_Hebrew-PTNK",
      "rtl": true
    },
    {
      "id": "UD_Apurina-UFPA@2.13",
      "config": "ud",
      "directory": "/Users/guillaum/resources/ud-treebanks-v2.13/UD_Apurina-UFPA"
    },
    {
      "id": "UD_Arabic-NYUAD@2.13",
      "config": "ud",
      "directory": "/Users/guillaum/resources/ud-treebanks-v2.13/UD_Arabic-NYUAD",
      "rtl": true
    },
    {
      "id": "UD_Arabic-PADT@2.13",
      "config": "ud",
      "directory": "/Users/guillaum/resources/ud-treebanks-v2.13/UD_Arabic-PADT",
      "rtl": true
    },
    {
      "id": "UD_Arabic-PUD@2.13",
      "config": "ud",
      "directory": "/Users/guillaum/resources/ud-treebanks-v2.13/UD_Arabic-PUD",
      "rtl": true
    },
    {
      "id": "UD_Armenian-ArmTDP@2.13",
      "config": "ud",
      "directory": "/Users/guillaum/resources/ud-treebanks-v2.13/UD_Armenian-ArmTDP"
    },
    {
      "id": "UD_Armenian-BSUT@2.13",
      "config": "ud",
      "directory": "/Users/guillaum/resources/ud-treebanks-v2.13/UD_Armenian-BSUT"
    },
    {
      "id": "UD_Assyrian-AS@2.13",
      "config": "ud",
      "directory": "/Users/guillaum/resources/ud-treebanks-v2.13/UD_Assyrian-AS",
      "rtl": true
    },
    {
      "id": "UD_Bambara-CRB@2.13",
      "config": "ud",
      "directory": "/Users/guillaum/resources/ud-treebanks-v2.13/UD_Bambara-CRB"
    },
    {
      "id": "UD_Basque-BDT@2.13",
      "config": "ud",
      "directory": "/Users/guillaum/resources/ud-treebanks-v2.13/UD_Basque-BDT"
    },
    {
      "id": "UD_Beja-NSC@2.13",
      "config": "ud",
      "audio": true,
      "directory": "/Users/guillaum/resources/ud-treebanks-v2.13/UD_Beja-NSC"
    },
    {
      "id": "UD_Belarusian-HSE@2.13",
      "config": "ud",
      "directory": "/Users/guillaum/resources/ud-treebanks-v2.13/UD_Belarusian-HSE"
    },
    {
      "id": "UD_Bengali-BRU@2.13",
      "config": "ud",
      "directory": "/Users/guillaum/resources/ud-treebanks-v2.13/UD_Bengali-BRU"
    },
    {
      "id": "UD_Bhojpuri-BHTB@2.13",
      "config": "ud",
      "directory": "/Users/guillaum/resources/ud-treebanks-v2.13/UD_Bhojpuri-BHTB"
    },
    {
      "id": "UD_Bororo-BDT@2.13",
      "config": "ud",
      "directory": "/Users/guillaum/resources/ud-treebanks-v2.13/UD_Bororo-BDT"
    },
    {
      "id": "UD_Breton-KEB@2.13",
      "config": "ud",
      "directory": "/Users/guillaum/resources/ud-treebanks-v2.13/UD_Breton-KEB"
    },
    {
      "id": "UD_Bulgarian-BTB@2.13",
      "config": "ud",
      "directory": "/Users/guillaum/resources/ud-treebanks-v2.13/UD_Bulgarian-BTB"
    },
    {
      "id": "UD_Buryat-BDT@2.13",
      "config": "ud",
      "directory": "/Users/guillaum/resources/ud-treebanks-v2.13/UD_Buryat-BDT"
    },
    {
      "id": "UD_Cantonese-HK@2.13",
      "config": "ud",
      "directory": "/Users/guillaum/resources/ud-treebanks-v2.13/UD_Cantonese-HK"
    },
    {
      "id": "UD_Catalan-AnCora@2.13",
      "config": "ud",
      "directory": "/Users/guillaum/resources/ud-treebanks-v2.13/UD_Catalan-AnCora"
    },
    {
      "id": "UD_Cebuano-GJA@2.13",
      "config": "ud",
      "directory": "/Users/guillaum/resources/ud-treebanks-v2.13/UD_Cebuano-GJA"
    },
    {
      "id": "UD_Chinese-Beginner@2.13",
      "config": "ud",
      "directory": "/Users/guillaum/resources/ud-treebanks-v2.13/UD_Chinese-Beginner"
    },
    {
      "id": "UD_Chinese-CFL@2.13",
      "config": "ud",
      "directory": "/Users/guillaum/resources/ud-treebanks-v2.13/UD_Chinese-CFL"
    },
    {
      "id": "UD_Chinese-GSD@2.13",
      "config": "ud",
      "directory": "/Users/guillaum/resources/ud-treebanks-v2.13/UD_Chinese-GSD"
    },
    {
      "id": "UD_Chinese-GSDSimp@2.13",
      "config": "ud",
      "directory": "/Users/guillaum/resources/ud-treebanks-v2.13/UD_Chinese-GSDSimp"
    },
    {
      "id": "UD_Chinese-HK@2.13",
      "config": "ud",
      "directory": "/Users/guillaum/resources/ud-treebanks-v2.13/UD_Chinese-HK"
    },
    {
      "id": "UD_Chinese-PatentChar@2.13",
      "config": "ud",
      "directory": "/Users/guillaum/resources/ud-treebanks-v2.13/UD_Chinese-PatentChar"
    },
    {
      "id": "UD_Chinese-PUD@2.13",
      "config": "ud",
      "directory": "/Users/guillaum/resources/ud-treebanks-v2.13/UD_Chinese-PUD"
    },
    {
      "id": "UD_Chukchi-HSE@2.13",
      "config": "ud",
      "directory": "/Users/guillaum/resources/ud-treebanks-v2.13/UD_Chukchi-HSE"
    },
    {
      "id": "UD_Classical_Armenian-CAVaL@2.13",
      "config": "ud",
      "directory": "/Users/guillaum/resources/ud-treebanks-v2.13/UD_Classical_Armenian-CAVaL"
    },
    {
      "id": "UD_Classical_Chinese-Kyoto@2.13",
      "config": "ud",
      "directory": "/Users/guillaum/resources/ud-treebanks-v2.13/UD_Classical_Chinese-Kyoto"
    },
    {
      "id": "UD_Coptic-Scriptorium@2.13",
      "config": "ud",
      "directory": "/Users/guillaum/resources/ud-treebanks-v2.13/UD_Coptic-Scriptorium"
    },
    {
      "id": "UD_Croatian-SET@2.13",
      "config": "ud",
      "directory": "/Users/guillaum/resources/ud-treebanks-v2.13/UD_Croatian-SET"
    },
    {
      "id": "UD_Czech-CAC@2.13",
      "config": "ud",
      "directory": "/Users/guillaum/resources/ud-treebanks-v2.13/UD_Czech-CAC"
    },
    {
      "id": "UD_Czech-CLTT@2.13",
      "config": "ud",
      "directory": "/Users/guillaum/resources/ud-treebanks-v2.13/UD_Czech-CLTT"
    },
    {
      "id": "UD_Czech-FicTree@2.13",
      "config": "ud",
      "directory": "/Users/guillaum/resources/ud-treebanks-v2.13/UD_Czech-FicTree"
    },
    {
      "id": "UD_Czech-PDT@2.13",
      "config": "ud",
      "directory": "/Users/guillaum/resources/ud-treebanks-v2.13/UD_Czech-PDT"
    },
    {
      "id": "UD_Czech-Poetry@2.13",
      "config": "ud",
      "directory": "/Users/guillaum/resources/ud-treebanks-v2.13/UD_Czech-Poetry"
    },
    {
      "id": "UD_Czech-PUD@2.13",
      "config": "ud",
      "directory": "/Users/guillaum/resources/ud-treebanks-v2.13/UD_Czech-PUD"
    },
    {
      "id": "UD_Danish-DDT@2.13",
      "config": "ud",
      "directory": "/Users/guillaum/resources/ud-treebanks-v2.13/UD_Danish-DDT"
    },
    {
      "id": "UD_Dutch-Alpino@2.13",
      "config": "ud",
      "directory": "/Users/guillaum/resources/ud-treebanks-v2.13/UD_Dutch-Alpino"
    },
    {
      "id": "UD_Dutch-LassySmall@2.13",
      "config": "ud",
      "directory": "/Users/guillaum/resources/ud-treebanks-v2.13/UD_Dutch-LassySmall"
    },
    {
      "id": "UD_English-Atis@2.13",
      "config": "ud",
      "directory": "/Users/guillaum/resources/ud-treebanks-v2.13/UD_English-Atis"
    },
    {
      "id": "UD_English-ESLSpok@2.13",
      "config": "ud",
      "directory": "/Users/guillaum/resources/ud-treebanks-v2.13/UD_English-ESLSpok"
    },
    {
      "id": "UD_English-EWT@2.13",
      "config": "ud",
      "directory": "/Users/guillaum/resources/ud-treebanks-v2.13/UD_English-EWT"
    },
    {
      "id": "UD_English-GENTLE@2.13",
      "config": "ud",
      "directory": "/Users/guillaum/resources/ud-treebanks-v2.13/UD_English-GENTLE"
    },
    {
      "id": "UD_English-GUM@2.13",
      "config": "ud",
      "directory": "/Users/guillaum/resources/ud-treebanks-v2.13/UD_English-GUM"
    },
    {
      "id": "UD_English-GUMReddit@2.13",
      "config": "ud",
      "directory": "/Users/guillaum/resources/ud-treebanks-v2.13/UD_English-GUMReddit"
    },
    {
      "id": "UD_English-LinES@2.13",
      "config": "ud",
      "directory": "/Users/guillaum/resources/ud-treebanks-v2.13/UD_English-LinES"
    },
    {
      "id": "UD_English-PUD@2.13",
      "config": "ud",
      "directory": "/Users/guillaum/resources/ud-treebanks-v2.13/UD_English-PUD"
    },
    {
      "id": "UD_English-ParTUT@2.13",
      "config": "ud",
      "directory": "/Users/guillaum/resources/ud-treebanks-v2.13/UD_English-ParTUT"
    },
    {
      "id": "UD_English-Pronouns@2.13",
      "config": "ud",
      "directory": "/Users/guillaum/resources/ud-treebanks-v2.13/UD_English-Pronouns"
    },
    {
      "id": "UD_Erzya-JR@2.13",
      "config": "ud",
      "directory": "/Users/guillaum/resources/ud-treebanks-v2.13/UD_Erzya-JR"
    },
    {
      "id": "UD_Estonian-EDT@2.13",
      "config": "ud",
      "directory": "/Users/guillaum/resources/ud-treebanks-v2.13/UD_Estonian-EDT"
    },
    {
      "id": "UD_Estonian-EWT@2.13",
      "config": "ud",
      "directory": "/Users/guillaum/resources/ud-treebanks-v2.13/UD_Estonian-EWT"
    },
    {
      "id": "UD_Faroese-FarPaHC@2.13",
      "config": "ud",
      "directory": "/Users/guillaum/resources/ud-treebanks-v2.13/UD_Faroese-FarPaHC"
    },
    {
      "id": "UD_Faroese-OFT@2.13",
      "config": "ud",
      "directory": "/Users/guillaum/resources/ud-treebanks-v2.13/UD_Faroese-OFT"
    },
    {
      "id": "UD_Finnish-FTB@2.13",
      "config": "ud",
      "directory": "/Users/guillaum/resources/ud-treebanks-v2.13/UD_Finnish-FTB"
    },
    {
      "id": "UD_Finnish-OOD@2.13",
      "config": "ud",
      "directory": "/Users/guillaum/resources/ud-treebanks-v2.13/UD_Finnish-OOD"
    },
    {
      "id": "UD_Finnish-PUD@2.13",
      "config": "ud",
      "directory": "/Users/guillaum/resources/ud-treebanks-v2.13/UD_Finnish-PUD"
    },
    {
      "id": "UD_Finnish-TDT@2.13",
      "config": "ud",
      "directory": "/Users/guillaum/resources/ud-treebanks-v2.13/UD_Finnish-TDT"
    },
    {
      "id": "UD_French-FQB@2.13",
      "config": "ud",
      "directory": "/Users/guillaum/resources/ud-treebanks-v2.13/UD_French-FQB"
    },
    {
      "id": "UD_French-GSD@2.13",
      "config": "ud",
      "directory": "/Users/guillaum/resources/ud-treebanks-v2.13/UD_French-GSD"
    },
    {
      "id": "UD_French-PUD@2.13",
      "config": "ud",
      "directory": "/Users/guillaum/resources/ud-treebanks-v2.13/UD_French-PUD"
    },
    {
      "id": "UD_French-ParTUT@2.13",
      "config": "ud",
      "directory": "/Users/guillaum/resources/ud-treebanks-v2.13/UD_French-ParTUT"
    },
    {
      "id": "UD_French-Sequoia@2.13",
      "config": "ud",
      "directory": "/Users/guillaum/resources/ud-treebanks-v2.13/UD_French-Sequoia"
    },
    {
      "id": "UD_French-ParisStories@2.13",
      "audio": true,
      "config": "ud",
      "directory": "/Users/guillaum/resources/ud-treebanks-v2.13/UD_French-ParisStories"
    },
    {
      "id": "UD_French-Rhapsodie@2.13",
      "config": "ud",
      "directory": "/Users/guillaum/resources/ud-treebanks-v2.13/UD_French-Rhapsodie"
    },
    {
      "id": "UD_Frisian_Dutch-Fame@2.13",
      "config": "ud",
      "directory": "/Users/guillaum/resources/ud-treebanks-v2.13/UD_Frisian_Dutch-Fame"
    },
    {
      "id": "UD_Galician-CTG@2.13",
      "config": "ud",
      "directory": "/Users/guillaum/resources/ud-treebanks-v2.13/UD_Galician-CTG"
    },
    {
      "id": "UD_Galician-TreeGal@2.13",
      "config": "ud",
      "directory": "/Users/guillaum/resources/ud-treebanks-v2.13/UD_Galician-TreeGal"
    },
    {
      "id": "UD_Georgian-GLC@2.13",
      "config": "ud",
      "directory": "/Users/guillaum/resources/ud-treebanks-v2.13/UD_Georgian-GLC"
    },
    {
      "id": "UD_German-GSD@2.13",
      "config": "ud",
      "directory": "/Users/guillaum/resources/ud-treebanks-v2.13/UD_German-GSD"
    },
    {
      "id": "UD_German-HDT@2.13",
      "config": "ud",
      "directory": "/Users/guillaum/resources/ud-treebanks-v2.13/UD_German-HDT"
    },
    {
      "id": "UD_German-LIT@2.13",
      "config": "ud",
      "directory": "/Users/guillaum/resources/ud-treebanks-v2.13/UD_German-LIT"
    },
    {
      "id": "UD_German-PUD@2.13",
      "config": "ud",
      "directory": "/Users/guillaum/resources/ud-treebanks-v2.13/UD_German-PUD"
    },
    {
      "id": "UD_Gheg-GPS@2.13",
      "config": "ud",
      "directory": "/Users/guillaum/resources/ud-treebanks-v2.13/UD_Gheg-GPS"
    },
    {
      "id": "UD_Gothic-PROIEL@2.13",
      "config": "ud",
      "directory": "/Users/guillaum/resources/ud-treebanks-v2.13/UD_Gothic-PROIEL"
    },
    {
      "id": "UD_Greek-GDT@2.13",
      "config": "ud",
      "directory": "/Users/guillaum/resources/ud-treebanks-v2.13/UD_Greek-GDT"
    },
    {
      "id": "UD_Greek-GUD@2.13",
      "config": "ud",
      "directory": "/Users/guillaum/resources/ud-treebanks-v2.13/UD_Greek-GUD"
    },
    {
      "id": "UD_Guajajara-TuDeT@2.13",
      "config": "ud",
      "directory": "/Users/guillaum/resources/ud-treebanks-v2.13/UD_Guajajara-TuDeT"
    },
    {
      "id": "UD_Guarani-OldTuDeT@2.13",
      "config": "ud",
      "directory": "/Users/guillaum/resources/ud-treebanks-v2.13/UD_Guarani-OldTuDeT"
    },
    {
      "id": "UD_Haitian_Creole-Autogramm@2.13",
      "config": "ud",
      "directory": "/Users/guillaum/resources/ud-treebanks-v2.13/UD_Haitian_Creole-Autogramm",
      "rtl": true
    },
    {
      "id": "UD_Hebrew-IAHLTwiki@2.13",
      "config": "ud",
      "directory": "/Users/guillaum/resources/ud-treebanks-v2.13/UD_Hebrew-IAHLTwiki",
      "rtl": true
    },
    {
      "id": "UD_Hebrew-HTB@2.13",
      "config": "ud",
      "directory": "/Users/guillaum/resources/ud-treebanks-v2.13/UD_Hebrew-HTB",
      "rtl": true
    },
    {
      "id": "UD_Highland_Puebla_Nahuatl-ITML@2.13",
      "config": "ud",
      "directory": "/Users/guillaum/resources/ud-treebanks-v2.13/UD_Highland_Puebla_Nahuatl-ITML"
    },
    {
      "id": "UD_Hindi-HDTB@2.13",
      "config": "ud",
      "directory": "/Users/guillaum/resources/ud-treebanks-v2.13/UD_Hindi-HDTB"
    },
    {
      "id": "UD_Hindi-PUD@2.13",
      "config": "ud",
      "directory": "/Users/guillaum/resources/ud-treebanks-v2.13/UD_Hindi-PUD"
    },
    {
      "id": "UD_Hittite-HitTB@2.13",
      "config": "ud",
      "directory": "/Users/guillaum/resources/ud-treebanks-v2.13/UD_Hittite-HitTB"
    },
    {
      "id": "UD_Hungarian-Szeged@2.13",
      "config": "ud",
      "directory": "/Users/guillaum/resources/ud-treebanks-v2.13/UD_Hungarian-Szeged"
    },
    {
      "id": "UD_Icelandic-GC@2.13",
      "config": "ud",
      "directory": "/Users/guillaum/resources/ud-treebanks-v2.13/UD_Icelandic-GC"
    },
    {
      "id": "UD_Icelandic-IcePaHC@2.13",
      "config": "ud",
      "directory": "/Users/guillaum/resources/ud-treebanks-v2.13/UD_Icelandic-IcePaHC"
    },
    {
      "id": "UD_Icelandic-Modern@2.13",
      "config": "ud",
      "directory": "/Users/guillaum/resources/ud-treebanks-v2.13/UD_Icelandic-Modern"
    },
    {
      "id": "UD_Icelandic-PUD@2.13",
      "config": "ud",
      "directory": "/Users/guillaum/resources/ud-treebanks-v2.13/UD_Icelandic-PUD"
    },
    {
      "id": "UD_Indonesian-CSUI@2.13",
      "config": "ud",
      "directory": "/Users/guillaum/resources/ud-treebanks-v2.13/UD_Indonesian-CSUI"
    },
    {
      "id": "UD_Indonesian-GSD@2.13",
      "config": "ud",
      "directory": "/Users/guillaum/resources/ud-treebanks-v2.13/UD_Indonesian-GSD"
    },
    {
      "id": "UD_Indonesian-PUD@2.13",
      "config": "ud",
      "directory": "/Users/guillaum/resources/ud-treebanks-v2.13/UD_Indonesian-PUD"
    },
    {
      "id": "UD_Irish-Cadhan@2.13",
      "config": "ud",
      "directory": "/Users/guillaum/resources/ud-treebanks-v2.13/UD_Irish-Cadhan"
    },
    {
      "id": "UD_Irish-IDT@2.13",
      "config": "ud",
      "directory": "/Users/guillaum/resources/ud-treebanks-v2.13/UD_Irish-IDT"
    },
    {
      "id": "UD_Irish-TwittIrish@2.13",
      "config": "ud",
      "directory": "/Users/guillaum/resources/ud-treebanks-v2.13/UD_Irish-TwittIrish"
    },
    {
      "id": "UD_Italian-ISDT@2.13",
      "config": "ud",
      "directory": "/Users/guillaum/resources/ud-treebanks-v2.13/UD_Italian-ISDT"
    },
    {
      "id": "UD_Italian-MarkIT@2.13",
      "config": "ud",
      "directory": "/Users/guillaum/resources/ud-treebanks-v2.13/UD_Italian-MarkIT"
    },
    {
      "id": "UD_Italian-Old@2.13",
      "config": "ud",
      "directory": "/Users/guillaum/resources/ud-treebanks-v2.13/UD_Italian-Old"
    },
    {
      "id": "UD_Italian-ParlaMint@2.13",
      "config": "ud",
      "directory": "/Users/guillaum/resources/ud-treebanks-v2.13/UD_Italian-ParlaMint"
    },
    {
      "id": "UD_Italian-ParTUT@2.13",
      "config": "ud",
      "directory": "/Users/guillaum/resources/ud-treebanks-v2.13/UD_Italian-ParTUT"
    },
    {
      "id": "UD_Italian-PoSTWITA@2.13",
      "config": "ud",
      "directory": "/Users/guillaum/resources/ud-treebanks-v2.13/UD_Italian-PoSTWITA"
    },
    {
      "id": "UD_Italian-PUD@2.13",
      "config": "ud",
      "directory": "/Users/guillaum/resources/ud-treebanks-v2.13/UD_Italian-PUD"
    },
    {
      "id": "UD_Italian-TWITTIRO@2.13",
      "config": "ud",
      "directory": "/Users/guillaum/resources/ud-treebanks-v2.13/UD_Italian-TWITTIRO"
    },
    {
      "id": "UD_Italian-VIT@2.13",
      "config": "ud",
      "directory": "/Users/guillaum/resources/ud-treebanks-v2.13/UD_Italian-VIT"
    },
    {
      "id": "UD_Italian-Valico@2.13",
      "config": "ud",
      "directory": "/Users/guillaum/resources/ud-treebanks-v2.13/UD_Italian-Valico"
    },
    {
      "id": "UD_Japanese-BCCWJ@2.13",
      "config": "ud",
      "directory": "/Users/guillaum/resources/ud-treebanks-v2.13/UD_Japanese-BCCWJ"
    },
    {
      "id": "UD_Japanese-BCCWJLUW@2.13",
      "config": "ud",
      "directory": "/Users/guillaum/resources/ud-treebanks-v2.13/UD_Japanese-BCCWJLUW"
    },
    {
      "id": "UD_Japanese-GSD@2.13",
      "config": "ud",
      "directory": "/Users/guillaum/resources/ud-treebanks-v2.13/UD_Japanese-GSD"
    },
    {
      "id": "UD_Japanese-GSDLUW@2.13",
      "config": "ud",
      "directory": "/Users/guillaum/resources/ud-treebanks-v2.13/UD_Japanese-GSDLUW"
    },
    {
      "id": "UD_Japanese-PUD@2.13",
      "config": "ud",
      "directory": "/Users/guillaum/resources/ud-treebanks-v2.13/UD_Japanese-PUD"
    },
    {
      "id": "UD_Japanese-PUDLUW@2.13",
      "config": "ud",
      "directory": "/Users/guillaum/resources/ud-treebanks-v2.13/UD_Japanese-PUDLUW"
    },
    {
      "id": "UD_Javanese-CSUI@2.13",
      "config": "ud",
      "directory": "/Users/guillaum/resources/ud-treebanks-v2.13/UD_Javanese-CSUI"
    },
    {
      "id": "UD_Kaapor-TuDeT@2.13",
      "config": "ud",
      "directory": "/Users/guillaum/resources/ud-treebanks-v2.13/UD_Kaapor-TuDeT"
    },
    {
      "id": "UD_Kangri-KDTB@2.13",
      "config": "ud",
      "directory": "/Users/guillaum/resources/ud-treebanks-v2.13/UD_Kangri-KDTB"
    },
    {
      "id": "UD_Karelian-KKPP@2.13",
      "config": "ud",
      "directory": "/Users/guillaum/resources/ud-treebanks-v2.13/UD_Karelian-KKPP"
    },
    {
      "id": "UD_Karo-TuDeT@2.13",
      "config": "ud",
      "directory": "/Users/guillaum/resources/ud-treebanks-v2.13/UD_Karo-TuDeT"
    },
    {
      "id": "UD_Kazakh-KTB@2.13",
      "config": "ud",
      "directory": "/Users/guillaum/resources/ud-treebanks-v2.13/UD_Kazakh-KTB"
    },
    {
      "id": "UD_Khunsari-AHA@2.13",
      "config": "ud",
      "directory": "/Users/guillaum/resources/ud-treebanks-v2.13/UD_Khunsari-AHA"
    },
    {
      "id": "UD_Kiche-IU@2.13",
      "config": "ud",
      "directory": "/Users/guillaum/resources/ud-treebanks-v2.13/UD_Kiche-IU"
    },
    {
      "id": "UD_Komi_Permyak-UH@2.13",
      "config": "ud",
      "directory": "/Users/guillaum/resources/ud-treebanks-v2.13/UD_Komi_Permyak-UH"
    },
    {
      "id": "UD_Komi_Zyrian-IKDP@2.13",
      "config": "ud",
      "directory": "/Users/guillaum/resources/ud-treebanks-v2.13/UD_Komi_Zyrian-IKDP"
    },
    {
      "id": "UD_Komi_Zyrian-Lattice@2.13",
      "config": "ud",
      "directory": "/Users/guillaum/resources/ud-treebanks-v2.13/UD_Komi_Zyrian-Lattice"
    },
    {
      "id": "UD_Korean-GSD@2.13",
      "config": "ud",
      "directory": "/Users/guillaum/resources/ud-treebanks-v2.13/UD_Korean-GSD"
    },
    {
      "id": "UD_Korean-Kaist@2.13",
      "config": "ud",
      "directory": "/Users/guillaum/resources/ud-treebanks-v2.13/UD_Korean-Kaist"
    },
    {
      "id": "UD_Korean-PUD@2.13",
      "config": "ud",
      "directory": "/Users/guillaum/resources/ud-treebanks-v2.13/UD_Korean-PUD"
    },
    {
      "id": "UD_Kurmanji-MG@2.13",
      "config": "ud",
      "directory": "/Users/guillaum/resources/ud-treebanks-v2.13/UD_Kurmanji-MG"
    },
    {
      "id": "UD_Kyrgyz-KTMU@2.13",
      "config": "ud",
      "directory": "/Users/guillaum/resources/ud-treebanks-v2.13/UD_Kyrgyz-KTMU"
    },
    {
      "id": "UD_Latin-ITTB@2.13",
      "config": "ud",
      "directory": "/Users/guillaum/resources/ud-treebanks-v2.13/UD_Latin-ITTB"
    },
    {
      "id": "UD_Latin-LLCT@2.13",
      "config": "ud",
      "directory": "/Users/guillaum/resources/ud-treebanks-v2.13/UD_Latin-LLCT"
    },
    {
      "id": "UD_Latin-PROIEL@2.13",
      "config": "ud",
      "directory": "/Users/guillaum/resources/ud-treebanks-v2.13/UD_Latin-PROIEL"
    },
    {
      "id": "UD_Latin-Perseus@2.13",
      "config": "ud",
      "directory": "/Users/guillaum/resources/ud-treebanks-v2.13/UD_Latin-Perseus"
    },
    {
      "id": "UD_Latin-UDante@2.13",
      "config": "ud",
      "directory": "/Users/guillaum/resources/ud-treebanks-v2.13/UD_Latin-UDante"
    },
    {
      "id": "UD_Latvian-LVTB@2.13",
      "config": "ud",
      "directory": "/Users/guillaum/resources/ud-treebanks-v2.13/UD_Latvian-LVTB"
    },
    {
      "id": "UD_Ligurian-GLT@2.13",
      "config": "ud",
      "directory": "/Users/guillaum/resources/ud-treebanks-v2.13/UD_Ligurian-GLT"
    },
    {
      "id": "UD_Lithuanian-ALKSNIS@2.13",
      "config": "ud",
      "directory": "/Users/guillaum/resources/ud-treebanks-v2.13/UD_Lithuanian-ALKSNIS"
    },
    {
      "id": "UD_Lithuanian-HSE@2.13",
      "config": "ud",
      "directory": "/Users/guillaum/resources/ud-treebanks-v2.13/UD_Lithuanian-HSE"
    },
    {
      "id": "UD_Livvi-KKPP@2.13",
      "config": "ud",
      "directory": "/Users/guillaum/resources/ud-treebanks-v2.13/UD_Livvi-KKPP"
    },
    {
      "id": "UD_Low_Saxon-LSDC@2.13",
      "config": "ud",
      "directory": "/Users/guillaum/resources/ud-treebanks-v2.13/UD_Low_Saxon-LSDC"
    },
    {
      "id": "UD_Macedonian-MTB@2.13",
      "config": "ud",
      "directory": "/Users/guillaum/resources/ud-treebanks-v2.13/UD_Macedonian-MTB"
    },
    {
      "id": "UD_Madi-Jarawara@2.13",
      "config": "ud",
      "directory": "/Users/guillaum/resources/ud-treebanks-v2.13/UD_Madi-Jarawara"
    },
    {
      "id": "UD_Maghrebi_Arabic_French-Arabizi@2.13",
      "config": "ud",
      "directory": "/Users/guillaum/resources/ud-treebanks-v2.13/UD_Maghrebi_Arabic_French-Arabizi"
    },
    {
      "id": "UD_Makurap-TuDeT@2.13",
      "config": "ud",
      "directory": "/Users/guillaum/resources/ud-treebanks-v2.13/UD_Makurap-TuDeT"
    },
    {
      "id": "UD_Malayalam-UFAL@2.13",
      "config": "ud",
      "directory": "/Users/guillaum/resources/ud-treebanks-v2.13/UD_Malayalam-UFAL"
    },
    {
      "id": "UD_Maltese-MUDT@2.13",
      "config": "ud",
      "directory": "/Users/guillaum/resources/ud-treebanks-v2.13/UD_Maltese-MUDT"
    },
    {
      "id": "UD_Manx-Cadhan@2.13",
      "config": "ud",
      "directory": "/Users/guillaum/resources/ud-treebanks-v2.13/UD_Manx-Cadhan"
    },
    {
      "id": "UD_Marathi-UFAL@2.13",
      "config": "ud",
      "directory": "/Users/guillaum/resources/ud-treebanks-v2.13/UD_Marathi-UFAL"
    },
    {
      "id": "UD_Mbya_Guarani-Dooley@2.13",
      "config": "ud",
      "directory": "/Users/guillaum/resources/ud-treebanks-v2.13/UD_Mbya_Guarani-Dooley"
    },
    {
      "id": "UD_Mbya_Guarani-Thomas@2.13",
      "config": "ud",
      "directory": "/Users/guillaum/resources/ud-treebanks-v2.13/UD_Mbya_Guarani-Thomas"
    },
    {
      "id": "UD_Middle_French-PROFITEROLE@2.13",
      "config": "ud",
      "directory": "/Users/guillaum/resources/ud-treebanks-v2.13/UD_Middle_French-PROFITEROLE"
    },
    {
      "id": "UD_Moksha-JR@2.13",
      "config": "ud",
      "directory": "/Users/guillaum/resources/ud-treebanks-v2.13/UD_Moksha-JR"
    },
    {
      "id": "UD_Munduruku-TuDeT@2.13",
      "config": "ud",
      "directory": "/Users/guillaum/resources/ud-treebanks-v2.13/UD_Munduruku-TuDeT"
    },
    {
      "id": "UD_Naija-NSC@2.13",
      "config": "ud",
      "audio": true,
      "directory": "/Users/guillaum/resources/ud-treebanks-v2.13/UD_Naija-NSC"
    },
    {
      "id": "UD_Nayini-AHA@2.13",
      "config": "ud",
      "directory": "/Users/guillaum/resources/ud-treebanks-v2.13/UD_Nayini-AHA"
    },
    {
      "id": "UD_Neapolitan-RB@2.13",
      "config": "ud",
      "directory": "/Users/guillaum/resources/ud-treebanks-v2.13/UD_Neapolitan-RB"
    },
    {
      "id": "UD_Nheengatu-CompLin@2.13",
      "config": "ud",
      "directory": "/Users/guillaum/resources/ud-treebanks-v2.13/UD_Nheengatu-CompLin"
    },
    {
      "id": "UD_North_Sami-Giella@2.13",
      "config": "ud",
      "directory": "/Users/guillaum/resources/ud-treebanks-v2.13/UD_North_Sami-Giella"
    },
    {
      "id": "UD_Norwegian-Bokmaal@2.13",
      "config": "ud",
      "directory": "/Users/guillaum/resources/ud-treebanks-v2.13/UD_Norwegian-Bokmaal"
    },
    {
      "id": "UD_Norwegian-Nynorsk@2.13",
      "config": "ud",
      "directory": "/Users/guillaum/resources/ud-treebanks-v2.13/UD_Norwegian-Nynorsk"
    },
    {
      "id": "UD_Old_Church_Slavonic-PROIEL@2.13",
      "config": "ud",
      "directory": "/Users/guillaum/resources/ud-treebanks-v2.13/UD_Old_Church_Slavonic-PROIEL"
    },
    {
      "id": "UD_Old_East_Slavic-Birchbark@2.13",
      "config": "ud",
      "directory": "/Users/guillaum/resources/ud-treebanks-v2.13/UD_Old_East_Slavic-Birchbark"
    },
    {
      "id": "UD_Old_East_Slavic-RNC@2.13",
      "config": "ud",
      "directory": "/Users/guillaum/resources/ud-treebanks-v2.13/UD_Old_East_Slavic-RNC"
    },
    {
      "id": "UD_Old_East_Slavic-Ruthenian@2.13",
      "config": "ud",
      "directory": "/Users/guillaum/resources/ud-treebanks-v2.13/UD_Old_East_Slavic-Ruthenian"
    },
    {
      "id": "UD_Old_East_Slavic-TOROT@2.13",
      "config": "ud",
      "directory": "/Users/guillaum/resources/ud-treebanks-v2.13/UD_Old_East_Slavic-TOROT"
    },
    {
      "id": "UD_Old_French-PROFITEROLE@2.13",
      "config": "ud",
      "directory": "/Users/guillaum/resources/ud-treebanks-v2.13/UD_Old_French-PROFITEROLE"
    },
    {
      "id": "UD_Old_Irish-DipSGG@2.13",
      "config": "ud",
      "directory": "/Users/guillaum/resources/ud-treebanks-v2.13/UD_Old_Irish-DipSGG"
    },
    {
      "id": "UD_Old_Irish-DipWBG@2.13",
      "config": "ud",
      "directory": "/Users/guillaum/resources/ud-treebanks-v2.13/UD_Old_Irish-DipWBG"
    },
    {
      "id": "UD_Old_Turkish-Tonqq@2.13",
      "config": "ud",
      "directory": "/Users/guillaum/resources/ud-treebanks-v2.13/UD_Old_Turkish-Tonqq"
    },
    {
      "id": "UD_Persian-PerDT@2.13",
      "config": "ud",
      "directory": "/Users/guillaum/resources/ud-treebanks-v2.13/UD_Persian-PerDT",
      "rtl": true
    },
    {
      "id": "UD_Persian-Seraji@2.13",
      "config": "ud",
      "directory": "/Users/guillaum/resources/ud-treebanks-v2.13/UD_Persian-Seraji",
      "rtl": true
    },
    {
      "id": "UD_Polish-LFG@2.13",
      "config": "ud",
      "directory": "/Users/guillaum/resources/ud-treebanks-v2.13/UD_Polish-LFG"
    },
    {
      "id": "UD_Polish-PDB@2.13",
      "config": "ud",
      "directory": "/Users/guillaum/resources/ud-treebanks-v2.13/UD_Polish-PDB"
    },
    {
      "id": "UD_Polish-PUD@2.13",
      "config": "ud",
      "directory": "/Users/guillaum/resources/ud-treebanks-v2.13/UD_Polish-PUD"
    },
    {
      "id": "UD_Pomak-Philotis@2.13",
      "config": "ud",
      "directory": "/Users/guillaum/resources/ud-treebanks-v2.13/UD_Pomak-Philotis"
    },
    {
      "id": "UD_Portuguese-Bosque@2.13",
      "config": "ud",
      "directory": "/Users/guillaum/resources/ud-treebanks-v2.13/UD_Portuguese-Bosque"
    },
    {
      "id": "UD_Portuguese-CINTIL@2.13",
      "config": "ud",
      "directory": "/Users/guillaum/resources/ud-treebanks-v2.13/UD_Portuguese-CINTIL"
    },
    {
      "id": "UD_Portuguese-GSD@2.13",
      "config": "ud",
      "directory": "/Users/guillaum/resources/ud-treebanks-v2.13/UD_Portuguese-GSD"
    },
    {
      "id": "UD_Portuguese-PetroGold@2.13",
      "config": "ud",
      "directory": "/Users/guillaum/resources/ud-treebanks-v2.13/UD_Portuguese-PetroGold"
    },
    {
      "id": "UD_Portuguese-Porttinari@2.13",
      "config": "ud",
      "directory": "/Users/guillaum/resources/ud-treebanks-v2.13/UD_Portuguese-Porttinari"
    },
    {
      "id": "UD_Portuguese-PUD@2.13",
      "config": "ud",
      "directory": "/Users/guillaum/resources/ud-treebanks-v2.13/UD_Portuguese-PUD"
    },
    {
      "id": "UD_Romanian-ArT@2.13",
      "config": "ud",
      "directory": "/Users/guillaum/resources/ud-treebanks-v2.13/UD_Romanian-ArT"
    },
    {
      "id": "UD_Romanian-Nonstandard@2.13",
      "config": "ud",
      "directory": "/Users/guillaum/resources/ud-treebanks-v2.13/UD_Romanian-Nonstandard"
    },
    {
      "id": "UD_Romanian-RRT@2.13",
      "config": "ud",
      "directory": "/Users/guillaum/resources/ud-treebanks-v2.13/UD_Romanian-RRT"
    },
    {
      "id": "UD_Romanian-SiMoNERo@2.13",
      "config": "ud",
      "directory": "/Users/guillaum/resources/ud-treebanks-v2.13/UD_Romanian-SiMoNERo"
    },
    {
      "id": "UD_Russian-GSD@2.13",
      "config": "ud",
      "directory": "/Users/guillaum/resources/ud-treebanks-v2.13/UD_Russian-GSD"
    },
    {
      "id": "UD_Russian-Poetry@2.13",
      "config": "ud",
      "directory": "/Users/guillaum/resources/ud-treebanks-v2.13/UD_Russian-Poetry"
    },
    {
      "id": "UD_Russian-PUD@2.13",
      "config": "ud",
      "directory": "/Users/guillaum/resources/ud-treebanks-v2.13/UD_Russian-PUD"
    },
    {
      "id": "UD_Russian-SynTagRus@2.13",
      "config": "ud",
      "directory": "/Users/guillaum/resources/ud-treebanks-v2.13/UD_Russian-SynTagRus"
    },
    {
      "id": "UD_Russian-Taiga@2.13",
      "config": "ud",
      "directory": "/Users/guillaum/resources/ud-treebanks-v2.13/UD_Russian-Taiga"
    },
    {
      "id": "UD_Sanskrit-UFAL@2.13",
      "config": "ud",
      "directory": "/Users/guillaum/resources/ud-treebanks-v2.13/UD_Sanskrit-UFAL"
    },
    {
      "id": "UD_Sanskrit-Vedic@2.13",
      "config": "ud",
      "directory": "/Users/guillaum/resources/ud-treebanks-v2.13/UD_Sanskrit-Vedic"
    },
    {
      "id": "UD_Scottish_Gaelic-ARCOSG@2.13",
      "config": "ud",
      "directory": "/Users/guillaum/resources/ud-treebanks-v2.13/UD_Scottish_Gaelic-ARCOSG"
    },
    {
      "id": "UD_Serbian-SET@2.13",
      "config": "ud",
      "directory": "/Users/guillaum/resources/ud-treebanks-v2.13/UD_Serbian-SET"
    },
    {
      "id": "UD_Sinhala-STB@2.13",
      "config": "ud",
      "directory": "/Users/guillaum/resources/ud-treebanks-v2.13/UD_Sinhala-STB"
    },
    {
      "id": "UD_Skolt_Sami-Giellagas@2.13",
      "config": "ud",
      "directory": "/Users/guillaum/resources/ud-treebanks-v2.13/UD_Skolt_Sami-Giellagas"
    },
    {
      "id": "UD_Slovak-SNK@2.13",
      "config": "ud",
      "directory": "/Users/guillaum/resources/ud-treebanks-v2.13/UD_Slovak-SNK"
    },
    {
      "id": "UD_Slovenian-SSJ@2.13",
      "config": "ud",
      "directory": "/Users/guillaum/resources/ud-treebanks-v2.13/UD_Slovenian-SSJ"
    },
    {
      "id": "UD_Slovenian-SST@2.13",
      "config": "ud",
      "directory": "/Users/guillaum/resources/ud-treebanks-v2.13/UD_Slovenian-SST"
    },
    {
      "id": "UD_Soi-AHA@2.13",
      "config": "ud",
      "directory": "/Users/guillaum/resources/ud-treebanks-v2.13/UD_Soi-AHA"
    },
    {
      "id": "UD_South_Levantine_Arabic-MADAR@2.13",
      "config": "ud",
      "directory": "/Users/guillaum/resources/ud-treebanks-v2.13/UD_South_Levantine_Arabic-MADAR"
    },
    {
      "id": "UD_Spanish-AnCora@2.13",
      "config": "ud",
      "directory": "/Users/guillaum/resources/ud-treebanks-v2.13/UD_Spanish-AnCora"
    },
    {
      "id": "UD_Spanish-GSD@2.13",
      "config": "ud",
      "directory": "/Users/guillaum/resources/ud-treebanks-v2.13/UD_Spanish-GSD"
    },
    {
      "id": "UD_Spanish-PUD@2.13",
      "config": "ud",
      "directory": "/Users/guillaum/resources/ud-treebanks-v2.13/UD_Spanish-PUD"
    },
    {
      "id": "UD_Swedish-LinES@2.13",
      "config": "ud",
      "directory": "/Users/guillaum/resources/ud-treebanks-v2.13/UD_Swedish-LinES"
    },
    {
      "id": "UD_Swedish-PUD@2.13",
      "config": "ud",
      "directory": "/Users/guillaum/resources/ud-treebanks-v2.13/UD_Swedish-PUD"
    },
    {
      "id": "UD_Swedish-Talbanken@2.13",
      "config": "ud",
      "directory": "/Users/guillaum/resources/ud-treebanks-v2.13/UD_Swedish-Talbanken"
    },
    {
      "id": "UD_Swedish_Sign_Language-SSLC@2.13",
      "config": "ud",
      "directory": "/Users/guillaum/resources/ud-treebanks-v2.13/UD_Swedish_Sign_Language-SSLC"
    },
    {
      "id": "UD_Swiss_German-UZH@2.13",
      "config": "ud",
      "directory": "/Users/guillaum/resources/ud-treebanks-v2.13/UD_Swiss_German-UZH"
    },
    {
      "id": "UD_Tagalog-TRG@2.13",
      "config": "ud",
      "directory": "/Users/guillaum/resources/ud-treebanks-v2.13/UD_Tagalog-TRG"
    },
    {
      "id": "UD_Tagalog-Ugnayan@2.13",
      "config": "ud",
      "directory": "/Users/guillaum/resources/ud-treebanks-v2.13/UD_Tagalog-Ugnayan"
    },
    {
      "id": "UD_Tamil-MWTT@2.13",
      "config": "ud",
      "directory": "/Users/guillaum/resources/ud-treebanks-v2.13/UD_Tamil-MWTT"
    },
    {
      "id": "UD_Tamil-TTB@2.13",
      "config": "ud",
      "directory": "/Users/guillaum/resources/ud-treebanks-v2.13/UD_Tamil-TTB"
    },
    {
      "id": "UD_Tatar-NMCTT@2.13",
      "config": "ud",
      "directory": "/Users/guillaum/resources/ud-treebanks-v2.13/UD_Tatar-NMCTT"
    },
    {
      "id": "UD_Teko-TuDeT@2.13",
      "config": "ud",
      "directory": "/Users/guillaum/resources/ud-treebanks-v2.13/UD_Teko-TuDeT"
    },
    {
      "id": "UD_Telugu-MTG@2.13",
      "config": "ud",
      "directory": "/Users/guillaum/resources/ud-treebanks-v2.13/UD_Telugu-MTG"
    },
    {
      "id": "UD_Thai-PUD@2.13",
      "config": "ud",
      "directory": "/Users/guillaum/resources/ud-treebanks-v2.13/UD_Thai-PUD"
    },
    {
      "id": "UD_Tupinamba-TuDeT@2.13",
      "config": "ud",
      "directory": "/Users/guillaum/resources/ud-treebanks-v2.13/UD_Tupinamba-TuDeT"
    },
    {
      "id": "UD_Turkish-BOUN@2.13",
      "config": "ud",
      "directory": "/Users/guillaum/resources/ud-treebanks-v2.13/UD_Turkish-BOUN"
    },
    {
      "id": "UD_Turkish-FrameNet@2.13",
      "config": "ud",
      "directory": "/Users/guillaum/resources/ud-treebanks-v2.13/UD_Turkish-FrameNet"
    },
    {
      "id": "UD_Turkish-Atis@2.13",
      "config": "ud",
      "directory": "/Users/guillaum/resources/ud-treebanks-v2.13/UD_Turkish-Atis"
    },
    {
      "id": "UD_Turkish-GB@2.13",
      "config": "ud",
      "directory": "/Users/guillaum/resources/ud-treebanks-v2.13/UD_Turkish-GB"
    },
    {
      "id": "UD_Turkish-IMST@2.13",
      "config": "ud",
      "directory": "/Users/guillaum/resources/ud-treebanks-v2.13/UD_Turkish-IMST"
    },
    {
      "id": "UD_Turkish-Kenet@2.13",
      "config": "ud",
      "directory": "/Users/guillaum/resources/ud-treebanks-v2.13/UD_Turkish-Kenet"
    },
    {
      "id": "UD_Turkish-PUD@2.13",
      "config": "ud",
      "directory": "/Users/guillaum/resources/ud-treebanks-v2.13/UD_Turkish-PUD"
    },
    {
      "id": "UD_Turkish-Penn@2.13",
      "config": "ud",
      "directory": "/Users/guillaum/resources/ud-treebanks-v2.13/UD_Turkish-Penn"
    },
    {
      "id": "UD_Turkish-Tourism@2.13",
      "config": "ud",
      "directory": "/Users/guillaum/resources/ud-treebanks-v2.13/UD_Turkish-Tourism"
    },
    {
      "id": "UD_Turkish_German-SAGT@2.13",
      "config": "ud",
      "directory": "/Users/guillaum/resources/ud-treebanks-v2.13/UD_Turkish_German-SAGT"
    },
    {
      "id": "UD_Ukrainian-IU@2.13",
      "config": "ud",
      "directory": "/Users/guillaum/resources/ud-treebanks-v2.13/UD_Ukrainian-IU"
    },
    {
      "id": "UD_Umbrian-IKUVINA@2.13",
      "config": "ud",
      "directory": "/Users/guillaum/resources/ud-treebanks-v2.13/UD_Umbrian-IKUVINA"
    },
    {
      "id": "UD_Upper_Sorbian-UFAL@2.13",
      "config": "ud",
      "directory": "/Users/guillaum/resources/ud-treebanks-v2.13/UD_Upper_Sorbian-UFAL"
    },
    {
      "id": "UD_Urdu-UDTB@2.13",
      "config": "ud",
      "directory": "/Users/guillaum/resources/ud-treebanks-v2.13/UD_Urdu-UDTB",
      "rtl": true
    },
    {
      "id": "UD_Uyghur-UDT@2.13",
      "config": "ud",
      "directory": "/Users/guillaum/resources/ud-treebanks-v2.13/UD_Uyghur-UDT",
      "rtl": true
    },
    {
      "id": "UD_Veps-VWT@2.13",
      "config": "ud",
      "directory": "/Users/guillaum/resources/ud-treebanks-v2.13/UD_Veps-VWT"
    },
    {
      "id": "UD_Vietnamese-VTB@2.13",
      "config": "ud",
      "directory": "/Users/guillaum/resources/ud-treebanks-v2.13/UD_Vietnamese-VTB"
    },
    {
      "id": "UD_Warlpiri-UFAL@2.13",
      "config": "ud",
      "directory": "/Users/guillaum/resources/ud-treebanks-v2.13/UD_Warlpiri-UFAL"
    },
    {
      "id": "UD_Welsh-CCG@2.13",
      "config": "ud",
      "directory": "/Users/guillaum/resources/ud-treebanks-v2.13/UD_Welsh-CCG"
    },
    {
      "id": "UD_Western_Armenian-ArmTDP@2.13",
      "config": "ud",
      "directory": "/Users/guillaum/resources/ud-treebanks-v2.13/UD_Western_Armenian-ArmTDP"
    },
    {
      "id": "UD_Western_Sierra_Puebla_Nahuatl-ITML@2.13",
      "config": "ud",
      "directory": "/Users/guillaum/resources/ud-treebanks-v2.13/UD_Western_Sierra_Puebla_Nahuatl-ITML"
    },
    {
      "id": "UD_Wolof-WTB@2.13",
      "config": "ud",
      "directory": "/Users/guillaum/resources/ud-treebanks-v2.13/UD_Wolof-WTB"
    },
    {
      "id": "UD_Xavante-XDT@2.13",
      "config": "ud",
      "directory": "/Users/guillaum/resources/ud-treebanks-v2.13/UD_Xavante-XDT"
    },
    {
      "id": "UD_Xibe-XDT@2.13",
      "config": "ud",
      "directory": "/Users/guillaum/resources/ud-treebanks-v2.13/UD_Xibe-XDT"
    },
    {
      "id": "UD_Yakut-YKTDT@2.13",
      "config": "ud",
      "directory": "/Users/guillaum/resources/ud-treebanks-v2.13/UD_Yakut-YKTDT"
    },
    {
      "id": "UD_Yoruba-YTB@2.13",
      "config": "ud",
      "directory": "/Users/guillaum/resources/ud-treebanks-v2.13/UD_Yoruba-YTB"
    },
    {
      "id": "UD_Yupik-SLI@2.13",
      "config": "ud",
      "directory": "/Users/guillaum/resources/ud-treebanks-v2.13/UD_Yupik-SLI"
    },
    {
      "id": "UD_Zaar-Autogramm@2.13",
      "config": "ud",
      "audio": true,
      "directory": "/Users/guillaum/resources/ud-treebanks-v2.13/UD_Zaar-Autogramm"
    }
  ]
}
